EESchema Schematic File Version 2
LIBS:power
LIBS:device
LIBS:transistors
LIBS:conn
LIBS:linear
LIBS:regul
LIBS:74xx
LIBS:cmos4000
LIBS:adc-dac
LIBS:memory
LIBS:xilinx
LIBS:special
LIBS:microcontrollers
LIBS:dsp
LIBS:microchip
LIBS:analog_switches
LIBS:motorola
LIBS:texas
LIBS:intel
LIBS:audio
LIBS:interface
LIBS:digital-audio
LIBS:philips
LIBS:display
LIBS:cypress
LIBS:siliconi
LIBS:opto
LIBS:atmel
LIBS:contrib
LIBS:valves
LIBS:comm
LIBS:stm32
LIBS:radio
LIBS:project-cache
EELAYER 27 0
EELAYER END
$Descr A4 11693 8268
encoding utf-8
Sheet 1 1
Title ""
Date "30 dec 2014"
Rev ""
Comp ""
Comment1 ""
Comment2 ""
Comment3 ""
Comment4 ""
$EndDescr
$Comp
L STM32F103RBT6 D1
U 1 1 549FBBC5
P 3400 2600
F 0 "D1" H 3400 4400 60  0000 C CNN
F 1 "STM32F103RBT6" H 3400 800 60  0000 C CNN
F 2 "AB2_LQFP64" H 3400 2600 60  0000 C CNN
F 3 "~" H 3400 2600 60  0000 C CNN
	1    3400 2600
	1    0    0    -1  
$EndComp
$Comp
L C C3
U 1 1 549FBBF9
P 7700 4300
F 0 "C3" H 7700 4400 40  0000 L CNN
F 1 "30p" H 7700 4200 40  0000 L CNN
F 2 "SM0603_Capa" H 8000 4300 39  0001 C CNN
F 3 "~" H 7700 4300 60  0000 C CNN
	1    7700 4300
	1    0    0    -1  
$EndComp
$Comp
L C C2
U 1 1 549FBBFF
P 6900 4300
F 0 "C2" H 6900 4400 40  0000 L CNN
F 1 "30p" H 6900 4200 40  0000 L CNN
F 2 "SM0603_Capa" H 7200 4300 39  0001 C CNN
F 3 "~" H 6900 4300 60  0000 C CNN
	1    6900 4300
	1    0    0    -1  
$EndComp
$Comp
L CRYSTAL X1
U 1 1 549FBC05
P 7300 4000
F 0 "X1" H 7300 4150 60  0000 C CNN
F 1 "8MHz" H 7300 3850 60  0000 C CNN
F 2 "HC-49V" H 7300 3750 39  0001 C CNN
F 3 "~" H 7300 4000 60  0000 C CNN
	1    7300 4000
	1    0    0    -1  
$EndComp
$Comp
L GND #PWR01
U 1 1 549FBC0B
P 7300 4700
F 0 "#PWR01" H 7300 4700 30  0001 C CNN
F 1 "GND" H 7300 4630 30  0001 C CNN
F 2 "" H 7300 4700 60  0000 C CNN
F 3 "" H 7300 4700 60  0000 C CNN
	1    7300 4700
	1    0    0    -1  
$EndComp
$Comp
L R R8
U 1 1 549FBC11
P 7300 3700
F 0 "R8" V 7380 3700 40  0000 C CNN
F 1 "1M*" V 7307 3701 40  0000 C CNN
F 2 "SM0603_Resistor" V 7200 3700 39  0001 C CNN
F 3 "~" H 7300 3700 30  0000 C CNN
	1    7300 3700
	0    -1   -1   0   
$EndComp
Text Label 6900 3500 1    60   ~ 0
OSC_IN
Text Label 7700 3500 1    60   ~ 0
OSC_OUT
Text Label 1400 2700 2    60   ~ 0
OSC_IN
Text Label 1400 2800 2    60   ~ 0
OSC_OUT
$Comp
L LM317_SOT223 U2
U 1 1 549FD48B
P 8600 6350
F 0 "U2" H 8600 6650 60  0000 C CNN
F 1 "LM1117-3.3" H 8400 6350 39  0000 L CNN
F 2 "SOT223" H 8600 6350 60  0001 C CNN
F 3 "~" H 8600 6350 60  0000 C CNN
	1    8600 6350
	1    0    0    -1  
$EndComp
$Comp
L +5V #PWR02
U 1 1 549FD497
P 8100 6100
F 0 "#PWR02" H 8100 6190 20  0001 C CNN
F 1 "+5V" H 8100 6190 30  0000 C CNN
F 2 "" H 8100 6100 60  0000 C CNN
F 3 "" H 8100 6100 60  0000 C CNN
	1    8100 6100
	1    0    0    -1  
$EndComp
$Comp
L CP1 C6
U 1 1 549FD4A9
P 9100 6500
F 0 "C6" H 9150 6600 50  0000 L CNN
F 1 "100u 6.3V" H 9150 6400 50  0000 L CNN
F 2 "SMDHD/VF" H 9100 6500 39  0001 C CNN
F 3 "~" H 9100 6500 60  0000 C CNN
	1    9100 6500
	1    0    0    -1  
$EndComp
$Comp
L +3.3V #PWR03
U 1 1 549FD4AF
P 9100 6100
F 0 "#PWR03" H 9100 6060 30  0001 C CNN
F 1 "+3.3V" H 9100 6210 30  0000 C CNN
F 2 "" H 9100 6100 60  0000 C CNN
F 3 "" H 9100 6100 60  0000 C CNN
	1    9100 6100
	1    0    0    -1  
$EndComp
Connection ~ 9100 6200
Wire Wire Line
	9100 6800 9100 6700
Wire Wire Line
	9100 6100 9100 6300
Wire Wire Line
	8600 6800 10900 6800
Wire Wire Line
	8600 6700 8600 6900
Wire Wire Line
	9000 6200 10900 6200
Wire Wire Line
	1600 2800 1400 2800
Wire Wire Line
	1600 2700 1400 2700
Connection ~ 7700 3700
Connection ~ 6900 3700
Wire Wire Line
	7700 3700 7550 3700
Connection ~ 6900 4000
Wire Wire Line
	6900 3700 7050 3700
Connection ~ 7300 4600
Wire Wire Line
	7300 4600 7300 4700
Wire Wire Line
	7700 4600 7700 4500
Wire Wire Line
	6900 4600 7700 4600
Wire Wire Line
	6900 4500 6900 4600
Wire Wire Line
	6900 4000 7000 4000
Wire Wire Line
	6900 3500 6900 4100
Connection ~ 7700 4000
Wire Wire Line
	7700 3500 7700 4100
Wire Wire Line
	7700 4000 7600 4000
Wire Wire Line
	8200 6200 8100 6200
Wire Wire Line
	8100 6200 8100 6100
$Comp
L GND #PWR04
U 1 1 549FD56B
P 8600 6900
F 0 "#PWR04" H 8600 6900 30  0001 C CNN
F 1 "GND" H 8600 6830 30  0001 C CNN
F 2 "" H 8600 6900 60  0000 C CNN
F 3 "" H 8600 6900 60  0000 C CNN
	1    8600 6900
	1    0    0    -1  
$EndComp
Connection ~ 8600 6800
$Comp
L JUMPER3 JP1
U 1 1 549FFBB1
P 6300 1200
F 0 "JP1" H 6250 1300 40  0000 L CNN
F 1 "BOOT0" H 6450 1100 40  0000 C CNN
F 2 "GS3" H 6300 1200 39  0001 C CNN
F 3 "~" H 6300 1200 60  0000 C CNN
	1    6300 1200
	0    -1   -1   0   
$EndComp
$Comp
L +3.3V #PWR05
U 1 1 549FFBB7
P 6300 850
F 0 "#PWR05" H 6300 810 30  0001 C CNN
F 1 "+3.3V" H 6300 960 30  0000 C CNN
F 2 "" H 6300 850 60  0000 C CNN
F 3 "" H 6300 850 60  0000 C CNN
	1    6300 850 
	1    0    0    -1  
$EndComp
$Comp
L GND #PWR06
U 1 1 549FFBBD
P 6300 1550
F 0 "#PWR06" H 6300 1550 30  0001 C CNN
F 1 "GND" H 6300 1480 30  0001 C CNN
F 2 "" H 6300 1550 60  0000 C CNN
F 3 "" H 6300 1550 60  0000 C CNN
	1    6300 1550
	1    0    0    -1  
$EndComp
Text Label 7100 1200 0    60   ~ 0
BOOT0
$Comp
L R R1
U 1 1 549FFBC4
P 6750 1200
F 0 "R1" V 6830 1200 40  0000 C CNN
F 1 "10K" V 6757 1201 40  0000 C CNN
F 2 "SM0603_Resistor" V 6650 1200 39  0001 C CNN
F 3 "~" H 6750 1200 30  0000 C CNN
	1    6750 1200
	0    -1   -1   0   
$EndComp
$Comp
L JUMPER3 JP2
U 1 1 549FFBCA
P 6300 2200
F 0 "JP2" H 6250 2300 40  0000 L CNN
F 1 "BOOT0" H 6450 2100 40  0000 C CNN
F 2 "GS3" H 6300 2200 39  0001 C CNN
F 3 "~" H 6300 2200 60  0000 C CNN
	1    6300 2200
	0    -1   -1   0   
$EndComp
$Comp
L +3.3V #PWR07
U 1 1 549FFBD0
P 6300 1850
F 0 "#PWR07" H 6300 1810 30  0001 C CNN
F 1 "+3.3V" H 6300 1960 30  0000 C CNN
F 2 "" H 6300 1850 60  0000 C CNN
F 3 "" H 6300 1850 60  0000 C CNN
	1    6300 1850
	1    0    0    -1  
$EndComp
$Comp
L GND #PWR08
U 1 1 549FFBD6
P 6300 2550
F 0 "#PWR08" H 6300 2550 30  0001 C CNN
F 1 "GND" H 6300 2480 30  0001 C CNN
F 2 "" H 6300 2550 60  0000 C CNN
F 3 "" H 6300 2550 60  0000 C CNN
	1    6300 2550
	1    0    0    -1  
$EndComp
Text Label 7100 2200 0    60   ~ 0
BOOT1
$Comp
L R R3
U 1 1 549FFBDD
P 6750 2200
F 0 "R3" V 6830 2200 40  0000 C CNN
F 1 "10K" V 6757 2201 40  0000 C CNN
F 2 "SM0603_Resistor" V 6650 2200 39  0001 C CNN
F 3 "~" H 6750 2200 30  0000 C CNN
	1    6750 2200
	0    -1   -1   0   
$EndComp
Wire Wire Line
	6300 850  6300 950 
Wire Wire Line
	6300 1450 6300 1550
Wire Wire Line
	6400 1200 6500 1200
Wire Wire Line
	7000 1200 7100 1200
Wire Wire Line
	6300 1850 6300 1950
Wire Wire Line
	6300 2450 6300 2550
Wire Wire Line
	6400 2200 6500 2200
Wire Wire Line
	7000 2200 7100 2200
Text Label 1400 3000 2    60   ~ 0
BOOT0
Wire Wire Line
	1600 3000 1400 3000
Text Label 5400 2900 0    60   ~ 0
BOOT1
Wire Wire Line
	5400 2900 5200 2900
Wire Wire Line
	1600 2900 1400 2900
Wire Wire Line
	1600 1000 1400 1000
Wire Wire Line
	1600 1100 1400 1100
Wire Wire Line
	1600 1200 1400 1200
Wire Wire Line
	1600 1300 1400 1300
Wire Wire Line
	1600 1400 1400 1400
Wire Wire Line
	1600 1500 1400 1500
Wire Wire Line
	1600 1600 1400 1600
Wire Wire Line
	1600 1700 1400 1700
Wire Wire Line
	1600 1800 1400 1800
Wire Wire Line
	1600 1900 1400 1900
Wire Wire Line
	1600 2000 1400 2000
Wire Wire Line
	1600 2100 1400 2100
Wire Wire Line
	1400 2200 1600 2200
Wire Wire Line
	1600 2300 1400 2300
Wire Wire Line
	1600 2400 1400 2400
Wire Wire Line
	1600 2500 1400 2500
Wire Wire Line
	1600 3100 1400 3100
Wire Wire Line
	1600 3200 1400 3200
Wire Wire Line
	1600 3300 1500 3300
Wire Wire Line
	1300 3400 1600 3400
Wire Wire Line
	1500 3500 1600 3500
Wire Wire Line
	1400 3600 1600 3600
Wire Wire Line
	1500 3700 1600 3700
Wire Wire Line
	1400 3800 1600 3800
Wire Wire Line
	1500 3900 1600 3900
Wire Wire Line
	1400 4000 1600 4000
Wire Wire Line
	1500 4100 1600 4100
Wire Wire Line
	1400 4200 1600 4200
Wire Wire Line
	1500 3300 1500 4300
Connection ~ 1500 3500
Connection ~ 1500 3700
Connection ~ 1500 3900
Connection ~ 1500 4100
$Comp
L GND #PWR09
U 1 1 54A02BCD
P 1500 4300
F 0 "#PWR09" H 1500 4300 30  0001 C CNN
F 1 "GND" H 1500 4230 30  0001 C CNN
F 2 "" H 1500 4300 60  0000 C CNN
F 3 "" H 1500 4300 60  0000 C CNN
	1    1500 4300
	1    0    0    -1  
$EndComp
Wire Wire Line
	1400 3200 1400 4200
Connection ~ 1400 3600
Connection ~ 1400 3800
Connection ~ 1400 4000
Connection ~ 1400 3400
$Comp
L +3.3V #PWR010
U 1 1 54A0354B
P 1300 3400
F 0 "#PWR010" H 1300 3360 30  0001 C CNN
F 1 "+3.3V" H 1300 3510 30  0000 C CNN
F 2 "" H 1300 3400 60  0000 C CNN
F 3 "" H 1300 3400 60  0000 C CNN
	1    1300 3400
	0    -1   -1   0   
$EndComp
$Comp
L C C7
U 1 1 54A04DA5
P 9700 6500
F 0 "C7" H 9700 6600 40  0000 L CNN
F 1 "100n" H 9700 6400 40  0000 L CNN
F 2 "SM0603_Capa" H 10000 6500 39  0001 C CNN
F 3 "~" H 9700 6500 60  0000 C CNN
	1    9700 6500
	1    0    0    -1  
$EndComp
$Comp
L C C8
U 1 1 54A04DAB
P 10000 6500
F 0 "C8" H 10000 6600 40  0000 L CNN
F 1 "100n" H 10000 6400 40  0000 L CNN
F 2 "SM0603_Capa" H 10300 6500 39  0001 C CNN
F 3 "~" H 10000 6500 60  0000 C CNN
	1    10000 6500
	1    0    0    -1  
$EndComp
$Comp
L C C9
U 1 1 54A04DB1
P 10300 6500
F 0 "C9" H 10300 6600 40  0000 L CNN
F 1 "100n" H 10300 6400 40  0000 L CNN
F 2 "SM0603_Capa" H 10600 6500 39  0001 C CNN
F 3 "~" H 10300 6500 60  0000 C CNN
	1    10300 6500
	1    0    0    -1  
$EndComp
$Comp
L C C10
U 1 1 54A04DB7
P 10600 6500
F 0 "C10" H 10600 6600 40  0000 L CNN
F 1 "100n" H 10600 6400 40  0000 L CNN
F 2 "SM0603_Capa" H 10900 6500 39  0001 C CNN
F 3 "~" H 10600 6500 60  0000 C CNN
	1    10600 6500
	1    0    0    -1  
$EndComp
Wire Wire Line
	9700 6200 9700 6300
Wire Wire Line
	10000 6200 10000 6300
Connection ~ 9700 6200
Wire Wire Line
	10300 6200 10300 6300
Connection ~ 10000 6200
Wire Wire Line
	10600 6200 10600 6300
Connection ~ 10300 6200
Wire Wire Line
	9700 6800 9700 6700
Connection ~ 9100 6800
Wire Wire Line
	10000 6800 10000 6700
Connection ~ 9700 6800
Wire Wire Line
	10300 6800 10300 6700
Connection ~ 10000 6800
Wire Wire Line
	10600 6800 10600 6700
Connection ~ 10300 6800
$Comp
L C C11
U 1 1 54A0504F
P 10900 6500
F 0 "C11" H 10900 6600 40  0000 L CNN
F 1 "100n" H 10900 6400 40  0000 L CNN
F 2 "SM0603_Capa" H 11200 6500 39  0001 C CNN
F 3 "~" H 10900 6500 60  0000 C CNN
	1    10900 6500
	1    0    0    -1  
$EndComp
Wire Wire Line
	10900 6800 10900 6700
Connection ~ 10600 6800
Wire Wire Line
	10900 6200 10900 6300
Connection ~ 10600 6200
$Comp
L C C1
U 1 1 54A06F1D
P 7700 2000
F 0 "C1" H 7700 2100 40  0000 L CNN
F 1 "100n" H 7700 1900 40  0000 L CNN
F 2 "SM0603_Capa" H 8000 2000 39  0001 C CNN
F 3 "~" H 7700 2000 60  0000 C CNN
	1    7700 2000
	1    0    0    -1  
$EndComp
$Comp
L R R2
U 1 1 54A06F23
P 7700 1350
F 0 "R2" V 7780 1350 40  0000 C CNN
F 1 "10K" V 7707 1351 40  0000 C CNN
F 2 "SM0603_Resistor" V 7600 1350 39  0001 C CNN
F 3 "~" H 7700 1350 30  0000 C CNN
	1    7700 1350
	-1   0    0    1   
$EndComp
$Comp
L GND #PWR011
U 1 1 54A06F29
P 7700 2300
F 0 "#PWR011" H 7700 2300 30  0001 C CNN
F 1 "GND" H 7700 2230 30  0001 C CNN
F 2 "" H 7700 2300 60  0000 C CNN
F 3 "" H 7700 2300 60  0000 C CNN
	1    7700 2300
	1    0    0    -1  
$EndComp
$Comp
L +3.3V #PWR012
U 1 1 54A06F2F
P 7700 1000
F 0 "#PWR012" H 7700 960 30  0001 C CNN
F 1 "+3.3V" H 7700 1110 30  0000 C CNN
F 2 "" H 7700 1000 60  0000 C CNN
F 3 "" H 7700 1000 60  0000 C CNN
	1    7700 1000
	1    0    0    -1  
$EndComp
Wire Wire Line
	7700 1600 7700 1800
Connection ~ 7700 1700
Wire Wire Line
	7700 1100 7700 1000
Wire Wire Line
	7700 2200 7700 2300
Wire Wire Line
	7900 1700 7700 1700
$Comp
L +5V #PWR013
U 1 1 54A08710
P 10200 3350
F 0 "#PWR013" H 10200 3440 20  0001 C CNN
F 1 "+5V" H 10200 3440 30  0000 C CNN
F 2 "" H 10200 3350 60  0001 C CNN
F 3 "" H 10200 3350 60  0001 C CNN
	1    10200 3350
	1    0    0    -1  
$EndComp
$Comp
L +3.3V #PWR014
U 1 1 54A0871C
P 9500 4500
F 0 "#PWR014" H 9500 4460 30  0001 C CNN
F 1 "+3.3V" H 9500 4610 30  0000 C CNN
F 2 "" H 9500 4500 60  0001 C CNN
F 3 "" H 9500 4500 60  0001 C CNN
	1    9500 4500
	1    0    0    -1  
$EndComp
$Comp
L R R12
U 1 1 54A08722
P 9500 4850
F 0 "R12" V 9580 4850 50  0000 C CNN
F 1 "47K" V 9500 4850 50  0000 C CNN
F 2 "SM0603_Resistor" H 9500 4850 60  0001 C CNN
F 3 "" H 9500 4850 60  0001 C CNN
	1    9500 4850
	-1   0    0    1   
$EndComp
$Comp
L R R10
U 1 1 54A08728
P 10100 4550
F 0 "R10" V 10180 4550 50  0000 C CNN
F 1 "10K" V 10100 4550 50  0000 C CNN
F 2 "SM0603_Resistor" H 10100 4550 60  0001 C CNN
F 3 "" H 10100 4550 60  0001 C CNN
	1    10100 4550
	-1   0    0    1   
$EndComp
$Comp
L R R14
U 1 1 54A0872E
P 10100 5250
F 0 "R14" V 10180 5250 50  0000 C CNN
F 1 "36K" V 10100 5250 50  0000 C CNN
F 2 "SM0603_Resistor" H 10100 5250 60  0001 C CNN
F 3 "" H 10100 5250 60  0001 C CNN
	1    10100 5250
	-1   0    0    1   
$EndComp
$Comp
L +3.3V #PWR015
U 1 1 54A08734
P 10700 4550
F 0 "#PWR015" H 10700 4510 30  0001 C CNN
F 1 "+3.3V" H 10700 4660 30  0000 C CNN
F 2 "" H 10700 4550 60  0001 C CNN
F 3 "" H 10700 4550 60  0001 C CNN
	1    10700 4550
	1    0    0    -1  
$EndComp
Text Notes 8900 2900 0    60   ~ 0
USB
$Comp
L R R7
U 1 1 54A0873B
P 8900 3450
F 0 "R7" V 8980 3450 50  0000 C CNN
F 1 "22" V 8900 3450 50  0000 C CNN
F 2 "SM0603_Resistor" H 8900 3450 60  0001 C CNN
F 3 "" H 8900 3450 60  0001 C CNN
	1    8900 3450
	-1   0    0    1   
$EndComp
$Comp
L R R9
U 1 1 54A08741
P 9550 4200
F 0 "R9" V 9630 4200 50  0000 C CNN
F 1 "22" V 9550 4200 50  0000 C CNN
F 2 "SM0603_Resistor" H 9550 4200 60  0001 C CNN
F 3 "" H 9550 4200 60  0001 C CNN
	1    9550 4200
	0    1    -1   0   
$EndComp
$Comp
L C C4
U 1 1 54A08747
P 8900 4600
F 0 "C4" H 8950 4700 50  0000 L CNN
F 1 "47p" H 8950 4500 50  0000 L CNN
F 2 "SM0603_Capa" H 8900 4600 60  0001 C CNN
F 3 "" H 8900 4600 60  0001 C CNN
	1    8900 4600
	-1   0    0    -1  
$EndComp
$Comp
L GND #PWR016
U 1 1 54A0874D
P 10100 5700
F 0 "#PWR016" H 10100 5700 30  0001 C CNN
F 1 "GND" H 10100 5630 30  0001 C CNN
F 2 "" H 10100 5700 60  0001 C CNN
F 3 "" H 10100 5700 60  0001 C CNN
	1    10100 5700
	1    0    0    -1  
$EndComp
$Comp
L GND #PWR017
U 1 1 54A08753
P 9050 5000
F 0 "#PWR017" H 9050 5000 30  0001 C CNN
F 1 "GND" H 9050 4930 30  0001 C CNN
F 2 "" H 9050 5000 60  0001 C CNN
F 3 "" H 9050 5000 60  0001 C CNN
	1    9050 5000
	1    0    0    -1  
$EndComp
$Comp
L C C5
U 1 1 54A08759
P 9200 4600
F 0 "C5" H 9250 4700 50  0000 L CNN
F 1 "47p" H 9250 4500 50  0000 L CNN
F 2 "SM0603_Capa" H 9200 4600 60  0001 C CNN
F 3 "" H 9200 4600 60  0001 C CNN
	1    9200 4600
	1    0    0    -1  
$EndComp
Text Label 9600 3900 0    60   ~ 0
USBDP
$Comp
L USB-OTG J2
U 1 1 54A08760
P 10600 3650
F 0 "J2" H 10600 3950 60  0000 C CNN
F 1 "USB-OTG" H 10600 3350 60  0000 C CNN
F 2 "MINIUSB_5PIN" H 10600 3650 60  0001 C CNN
F 3 "" H 10600 3650 60  0001 C CNN
	1    10600 3650
	1    0    0    -1  
$EndComp
$Comp
L ESD_PROT U1
U 1 1 54A08766
P 9550 3450
F 0 "U1" H 9300 3200 60  0000 C CNN
F 1 "ESD_PROT" H 9250 3800 60  0000 C CNN
F 2 "sot143B" H 9550 3450 60  0001 C CNN
F 3 "" H 9550 3450 60  0001 C CNN
	1    9550 3450
	1    0    0    1   
$EndComp
Text Label 9000 3000 0    60   ~ 0
USBDM
$Comp
L GND #PWR018
U 1 1 54A0876D
P 9100 3550
F 0 "#PWR018" H 9100 3550 30  0001 C CNN
F 1 "GND" H 9100 3480 30  0001 C CNN
F 2 "" H 9100 3550 60  0001 C CNN
F 3 "" H 9100 3550 60  0001 C CNN
	1    9100 3550
	1    0    0    -1  
$EndComp
$Comp
L R R11
U 1 1 54A08773
P 10900 4550
F 0 "R11" V 10980 4550 50  0000 C CNN
F 1 "1K5" V 10900 4550 50  0000 C CNN
F 2 "SM0603_Resistor" H 10900 4550 60  0001 C CNN
F 3 "" H 10900 4550 60  0001 C CNN
	1    10900 4550
	-1   0    0    1   
$EndComp
Text Notes 6900 5100 0    60   ~ 0
Indicators
$Comp
L LED L1
U 1 1 54A0877A
P 6900 6300
F 0 "L1" H 6900 6400 50  0000 C CNN
F 1 "POWER (RED)" H 6850 6200 50  0000 C CNN
F 2 "LED-0603" H 6900 6300 60  0001 C CNN
F 3 "" H 6900 6300 60  0001 C CNN
	1    6900 6300
	0    -1   1    0   
$EndComp
$Comp
L R R15
U 1 1 54A08780
P 6900 5750
F 0 "R15" V 6980 5750 50  0000 C CNN
F 1 "680" V 6900 5750 50  0000 C CNN
F 2 "SM0603_Resistor" H 6900 5750 60  0001 C CNN
F 3 "" H 6900 5750 60  0001 C CNN
	1    6900 5750
	-1   0    0    1   
$EndComp
$Comp
L +3.3V #PWR019
U 1 1 54A08786
P 7200 5300
F 0 "#PWR019" H 7200 5260 30  0001 C CNN
F 1 "+3.3V" H 7200 5410 30  0000 C CNN
F 2 "" H 7200 5300 60  0001 C CNN
F 3 "" H 7200 5300 60  0001 C CNN
	1    7200 5300
	1    0    0    -1  
$EndComp
$Comp
L GND #PWR020
U 1 1 54A0878C
P 6900 6600
F 0 "#PWR020" H 6900 6600 30  0001 C CNN
F 1 "GND" H 6900 6530 30  0001 C CNN
F 2 "" H 6900 6600 60  0001 C CNN
F 3 "" H 6900 6600 60  0001 C CNN
	1    6900 6600
	1    0    0    -1  
$EndComp
$Comp
L R R16
U 1 1 54A08792
P 7200 5750
F 0 "R16" V 7280 5750 50  0000 C CNN
F 1 "680" V 7200 5750 50  0000 C CNN
F 2 "SM0603_Resistor" H 7200 5750 60  0001 C CNN
F 3 "" H 7200 5750 60  0001 C CNN
	1    7200 5750
	-1   0    0    1   
$EndComp
$Comp
L LED L2
U 1 1 54A08798
P 7200 6300
F 0 "L2" H 7200 6400 50  0000 C CNN
F 1 "DATA_TX (GREEN)" H 7100 6200 50  0000 C CNN
F 2 "LED-0603" H 7200 6300 60  0001 C CNN
F 3 "" H 7200 6300 60  0001 C CNN
	1    7200 6300
	0    -1   1    0   
$EndComp
$Comp
L LED L3
U 1 1 54A0879E
P 7500 6300
F 0 "L3" H 7500 6400 50  0000 C CNN
F 1 "DATA_RX (BLUE)" H 7450 6200 50  0000 C CNN
F 2 "LED-0603" H 7500 6300 60  0001 C CNN
F 3 "" H 7500 6300 60  0001 C CNN
	1    7500 6300
	0    -1   1    0   
$EndComp
$Comp
L R R17
U 1 1 54A087A4
P 7500 5750
F 0 "R17" V 7580 5750 50  0000 C CNN
F 1 "680" V 7500 5750 50  0000 C CNN
F 2 "SM0603_Resistor" H 7500 5750 60  0001 C CNN
F 3 "" H 7500 5750 60  0001 C CNN
	1    7500 5750
	-1   0    0    1   
$EndComp
Text Notes 8800 700  0    60   ~ 0
JTAG (flash/debug)
$Comp
L R R4
U 1 1 54A087AB
P 9200 2250
F 0 "R4" V 9280 2250 50  0000 C CNN
F 1 "10K" V 9200 2250 50  0000 C CNN
F 2 "SM0603_Resistor" H 9200 2250 60  0001 C CNN
F 3 "" H 9200 2250 60  0001 C CNN
	1    9200 2250
	-1   0    0    -1  
$EndComp
$Comp
L R R5
U 1 1 54A087B1
P 9400 2250
F 0 "R5" V 9480 2250 50  0000 C CNN
F 1 "10K" V 9400 2250 50  0000 C CNN
F 2 "SM0603_Resistor" H 9400 2250 60  0001 C CNN
F 3 "" H 9400 2250 60  0001 C CNN
	1    9400 2250
	-1   0    0    -1  
$EndComp
$Comp
L R R6
U 1 1 54A087B7
P 9600 2250
F 0 "R6" V 9680 2250 50  0000 C CNN
F 1 "10K" V 9600 2250 50  0000 C CNN
F 2 "SM0603_Resistor" H 9600 2250 60  0001 C CNN
F 3 "" H 9600 2250 60  0001 C CNN
	1    9600 2250
	-1   0    0    -1  
$EndComp
$Comp
L GND #PWR021
U 1 1 54A087BD
P 9400 2700
F 0 "#PWR021" H 9400 2700 30  0001 C CNN
F 1 "GND" H 9400 2630 30  0001 C CNN
F 2 "" H 9400 2700 60  0001 C CNN
F 3 "" H 9400 2700 60  0001 C CNN
	1    9400 2700
	1    0    0    -1  
$EndComp
$Comp
L +3.3V #PWR022
U 1 1 54A087C3
P 9600 900
F 0 "#PWR022" H 9600 860 30  0001 C CNN
F 1 "+3.3V" H 9600 1010 30  0000 C CNN
F 2 "" H 9600 900 60  0001 C CNN
F 3 "" H 9600 900 60  0001 C CNN
	1    9600 900 
	1    0    0    -1  
$EndComp
$Comp
L +3.3V #PWR023
U 1 1 54A087C9
P 10900 900
F 0 "#PWR023" H 10900 860 30  0001 C CNN
F 1 "+3.3V" H 10900 1010 30  0000 C CNN
F 2 "" H 10900 900 60  0001 C CNN
F 3 "" H 10900 900 60  0001 C CNN
	1    10900 900 
	1    0    0    -1  
$EndComp
$Comp
L GND #PWR024
U 1 1 54A087CF
P 10900 2000
F 0 "#PWR024" H 10900 2000 30  0001 C CNN
F 1 "GND" H 10900 1930 30  0001 C CNN
F 2 "" H 10900 2000 60  0001 C CNN
F 3 "" H 10900 2000 60  0001 C CNN
	1    10900 2000
	1    0    0    -1  
$EndComp
$Comp
L ARM-JTAG J1
U 1 1 54A087D5
P 10250 1500
F 0 "J1" H 10250 2150 60  0000 C CNN
F 1 "ARM-JTAG" H 10250 950 60  0000 C CNN
F 2 "ARM_JTAG_10x2" H 10250 1500 60  0001 C CNN
F 3 "" H 10250 1500 60  0001 C CNN
	1    10250 1500
	1    0    0    -1  
$EndComp
Text GLabel 8700 4200 0    60   Input ~ 0
USB_DP
Text GLabel 8700 3900 0    60   Input ~ 0
USB_DM
Text GLabel 8700 5200 0    60   Input ~ 0
USB_DISC
Text GLabel 9100 1100 0    60   Input ~ 0
NJTRST
Text GLabel 9100 1200 0    60   Input ~ 0
JTDI
Text GLabel 9100 1300 0    60   Input ~ 0
JTMS/SWDIO
Text GLabel 9100 1400 0    60   Input ~ 0
JTCK/SWCLK
Text GLabel 9100 1600 0    60   Input ~ 0
JTDO
Text GLabel 9100 1700 0    60   Input ~ 0
NRST
Text GLabel 7200 6600 3    60   Input ~ 0
~DATA_TX
Text GLabel 7500 6600 3    60   Input ~ 0
~DATA_RX
$Comp
L R R13
U 1 1 54A087E6
P 9150 5200
F 0 "R13" V 9230 5200 50  0000 C CNN
F 1 "1K" V 9150 5200 50  0000 C CNN
F 2 "SM0603_Resistor" H 9150 5200 60  0001 C CNN
F 3 "" H 9150 5200 60  0001 C CNN
	1    9150 5200
	0    1    -1   0   
$EndComp
$Comp
L BC817-40 Q1
U 1 1 54A087EC
P 10600 4900
F 0 "Q1" H 10550 5000 40  0000 R CNN
F 1 "3904" H 10600 4750 40  0000 R CNN
F 2 "SOT23" H 10550 4650 39  0000 C CNN
F 3 "~" H 10600 4900 60  0000 C CNN
	1    10600 4900
	1    0    0    -1  
$EndComp
$Comp
L BC817-40 Q2
U 1 1 54A087F2
P 9800 5200
F 0 "Q2" H 9750 5300 40  0000 R CNN
F 1 "3904" H 9800 5050 40  0000 R CNN
F 2 "SOT23" H 9750 4950 39  0000 C CNN
F 3 "~" H 9800 5200 60  0000 C CNN
	1    9800 5200
	1    0    0    -1  
$EndComp
Connection ~ 10200 3450
Wire Wire Line
	10200 3450 10200 3350
Wire Wire Line
	9500 4500 9500 4600
Wire Wire Line
	10100 5500 10100 5700
Connection ~ 10100 3450
Wire Wire Line
	10100 3450 10100 4300
Connection ~ 10000 4200
Wire Wire Line
	10900 4200 10900 4300
Wire Wire Line
	9800 4200 10900 4200
Wire Wire Line
	8900 3200 8900 3000
Wire Wire Line
	9900 3450 10400 3450
Wire Wire Line
	9900 5400 9900 5600
Connection ~ 10100 4900
Wire Wire Line
	10100 4800 10100 5000
Wire Wire Line
	10700 5200 10900 5200
Wire Wire Line
	10700 5200 10700 5100
Wire Wire Line
	8700 4200 9300 4200
Wire Wire Line
	9700 1700 9100 1700
Wire Wire Line
	9700 1400 9100 1400
Wire Wire Line
	9700 1200 9100 1200
Wire Wire Line
	9200 2000 9200 1500
Wire Wire Line
	9200 1500 9700 1500
Connection ~ 9400 2600
Wire Wire Line
	9200 2500 9200 2600
Wire Wire Line
	9200 2600 9600 2600
Wire Wire Line
	9400 2000 9400 1800
Wire Wire Line
	9400 1800 9700 1800
Connection ~ 10900 1900
Wire Wire Line
	10900 1100 10900 2000
Wire Wire Line
	10900 900  10900 1000
Connection ~ 10900 1700
Wire Wire Line
	10900 1800 10800 1800
Connection ~ 10900 1500
Wire Wire Line
	10900 1600 10800 1600
Connection ~ 10900 1300
Wire Wire Line
	10900 1400 10800 1400
Wire Wire Line
	10800 1200 10900 1200
Wire Wire Line
	10900 1000 10800 1000
Wire Wire Line
	10900 1100 10800 1100
Wire Wire Line
	10900 1300 10800 1300
Connection ~ 10900 1200
Wire Wire Line
	10900 1500 10800 1500
Connection ~ 10900 1400
Wire Wire Line
	10900 1700 10800 1700
Connection ~ 10900 1600
Wire Wire Line
	10900 1900 10800 1900
Connection ~ 10900 1800
Wire Wire Line
	9700 1000 9600 1000
Wire Wire Line
	9600 1000 9600 900 
Wire Wire Line
	9700 1900 9600 1900
Wire Wire Line
	9600 1900 9600 2000
Wire Wire Line
	9600 2600 9600 2500
Wire Wire Line
	9400 2500 9400 2700
Wire Wire Line
	9700 1100 9100 1100
Wire Wire Line
	9700 1300 9100 1300
Wire Wire Line
	9700 1600 9100 1600
Wire Wire Line
	6900 5400 7800 5400
Wire Wire Line
	7200 5300 7200 5500
Wire Wire Line
	7500 6000 7500 6100
Wire Wire Line
	7200 6600 7200 6500
Wire Wire Line
	7200 6000 7200 6100
Wire Wire Line
	6900 6500 6900 6600
Wire Wire Line
	6900 6100 6900 6000
Wire Wire Line
	7500 6500 7500 6600
Wire Wire Line
	9100 3550 9100 3450
Wire Wire Line
	9100 3450 9200 3450
Wire Wire Line
	10000 3900 9550 3900
Wire Wire Line
	9200 4400 9200 4200
Wire Wire Line
	10300 5600 10300 3850
Wire Wire Line
	9550 3900 9550 3800
Connection ~ 9550 3000
Wire Wire Line
	9550 3100 9550 3000
Connection ~ 10300 4100
Wire Wire Line
	10300 3850 10400 3850
Connection ~ 8900 3900
Wire Wire Line
	8900 3700 8900 4400
Connection ~ 9050 4900
Wire Wire Line
	9050 5000 9050 4900
Wire Wire Line
	8900 4800 8900 4900
Wire Wire Line
	8900 4900 9200 4900
Wire Wire Line
	9200 4900 9200 4800
Connection ~ 9200 4200
Wire Wire Line
	10300 4100 10600 4100
Wire Wire Line
	10600 4100 10600 4000
Wire Wire Line
	8900 3000 10000 3000
Wire Wire Line
	10700 4550 10700 4700
Wire Wire Line
	8700 3900 8900 3900
Wire Wire Line
	10400 3550 10000 3550
Wire Wire Line
	9900 5000 9900 4900
Wire Wire Line
	10000 3650 10000 4200
Wire Wire Line
	10000 3650 10400 3650
Connection ~ 10000 3900
Wire Wire Line
	10000 3550 10000 3000
Wire Wire Line
	9900 4900 10400 4900
Wire Wire Line
	10900 5200 10900 4800
Wire Wire Line
	9900 5600 10300 5600
Connection ~ 10100 5600
Wire Wire Line
	9500 5100 9500 5200
Wire Wire Line
	9400 5200 9600 5200
Connection ~ 9500 5200
Wire Wire Line
	8900 5200 8700 5200
Wire Wire Line
	7500 5400 7500 5500
Wire Wire Line
	10400 3750 10300 3750
NoConn ~ 10300 3750
$Comp
L XL4432-SMT D3
U 1 1 54A08865
P 2300 6200
F 0 "D3" H 2300 6950 60  0000 C CNN
F 1 "XL4432-SMT" H 2300 5500 60  0000 C CNN
F 2 "XL4432-SMT-HEAD" H 2300 5400 60  0000 C CNN
F 3 "~" H 2300 6200 60  0000 C CNN
	1    2300 6200
	1    0    0    -1  
$EndComp
Wire Wire Line
	1300 6100 1600 6100
Wire Wire Line
	1300 6200 1600 6200
Wire Wire Line
	1300 6300 1600 6300
Wire Wire Line
	1300 6400 1600 6400
Wire Wire Line
	1300 6500 1600 6500
$Comp
L GND #PWR025
U 1 1 54A08870
P 1500 6800
F 0 "#PWR025" H 1500 6800 30  0001 C CNN
F 1 "GND" H 1500 6730 30  0001 C CNN
F 2 "" H 1500 6800 60  0000 C CNN
F 3 "" H 1500 6800 60  0000 C CNN
	1    1500 6800
	1    0    0    -1  
$EndComp
Wire Wire Line
	1600 6700 1500 6700
Wire Wire Line
	1500 5600 1500 6800
Wire Wire Line
	1500 5600 1600 5600
Connection ~ 1500 6700
$Comp
L +3.3V #PWR026
U 1 1 54A08882
P 1400 5600
F 0 "#PWR026" H 1400 5560 30  0001 C CNN
F 1 "+3.3V" H 1400 5710 30  0000 C CNN
F 2 "" H 1400 5600 60  0000 C CNN
F 3 "" H 1400 5600 60  0000 C CNN
	1    1400 5600
	1    0    0    -1  
$EndComp
Wire Wire Line
	1600 6000 1400 6000
Wire Wire Line
	1400 6000 1400 5600
Wire Wire Line
	1300 5800 1600 5800
Wire Wire Line
	1300 6600 1600 6600
Text GLabel 1300 6600 0    60   Input ~ 0
RF22_SDN
Text GLabel 1300 6100 0    60   Input ~ 0
RF22_SDO
Text GLabel 1300 6200 0    60   Input ~ 0
RF22_SDI
Text GLabel 1300 6300 0    60   Input ~ 0
RF22_SCK
Text GLabel 1300 6400 0    60   Input ~ 0
~RF22_CS
Text GLabel 1300 6500 0    60   Input ~ 0
~RF22_IRQ
Text GLabel 5400 3100 2    60   Input ~ 0
NJTRST
Text GLabel 1400 2500 0    60   Input ~ 0
JTDI
Text GLabel 1400 2300 0    60   Input ~ 0
JTMS/SWDIO
Text GLabel 1400 2400 0    60   Input ~ 0
JTCK/SWCLK
Text GLabel 5400 3000 2    60   Input ~ 0
JTDO
Wire Wire Line
	5400 3100 5200 3100
Wire Wire Line
	5200 1000 5400 1000
Wire Wire Line
	5200 1100 5400 1100
Wire Wire Line
	5200 1200 5400 1200
Wire Wire Line
	5200 1300 5400 1300
Wire Wire Line
	5200 1400 5400 1400
Wire Wire Line
	5200 1500 5400 1500
Wire Wire Line
	5200 1600 5400 1600
Wire Wire Line
	5200 1700 5400 1700
Wire Wire Line
	5200 1800 5400 1800
Wire Wire Line
	5200 1900 5400 1900
Wire Wire Line
	5200 2000 5400 2000
Wire Wire Line
	5200 2100 5400 2100
Wire Wire Line
	5200 2200 5400 2200
Wire Wire Line
	5200 2300 5400 2300
Wire Wire Line
	5200 2400 5400 2400
Wire Wire Line
	5200 2500 5400 2500
Wire Wire Line
	5200 2700 5400 2700
Wire Wire Line
	5200 2800 5400 2800
Wire Wire Line
	5200 3000 5400 3000
Wire Wire Line
	5200 3200 5400 3200
Wire Wire Line
	5200 3300 5400 3300
Wire Wire Line
	5200 3400 5400 3400
Wire Wire Line
	5200 3500 5400 3500
Wire Wire Line
	5200 3600 5400 3600
Wire Wire Line
	5200 3700 5400 3700
Wire Wire Line
	5200 3800 5400 3800
Wire Wire Line
	5200 3900 5400 3900
Wire Wire Line
	5200 4000 5400 4000
Wire Wire Line
	5200 4100 5400 4100
Wire Wire Line
	5200 4200 5400 4200
Text GLabel 1400 3100 0    60   Input ~ 0
NRST
Text GLabel 7900 1700 2    60   Input ~ 0
NRST
Text GLabel 1400 2200 0    60   Input ~ 0
USB_DP
Text GLabel 1400 2100 0    60   Input ~ 0
USB_DM
Text GLabel 5400 2300 2    60   Input ~ 0
USB_DISC
Connection ~ 7200 5400
Wire Wire Line
	6900 5400 6900 5500
Wire Wire Line
	1600 5700 1300 5700
Wire Wire Line
	1600 5900 1300 5900
Text GLabel 1300 5700 0    60   Input ~ 0
RF22_IO0
Text GLabel 1300 5800 0    60   Input ~ 0
RF22_IO1
Text GLabel 1300 5900 0    60   Input ~ 0
RF22_IO2
Text GLabel 1400 1200 0    60   Input ~ 0
RF22_SDN
Text GLabel 1400 1600 0    60   Input ~ 0
RF22_SDO
Text GLabel 1400 1700 0    60   Input ~ 0
RF22_SDI
Text GLabel 1400 1500 0    60   Input ~ 0
RF22_SCK
Text GLabel 1400 1400 0    60   Input ~ 0
~RF22_CS
Text GLabel 1400 1300 0    60   Input ~ 0
~RF22_IRQ
Text GLabel 5400 2800 2    60   Input ~ 0
RF22_IO0
Text GLabel 5400 2700 2    60   Input ~ 0
RF22_IO1
Text GLabel 5400 1500 2    60   Input ~ 0
RF22_IO2
$Comp
L R R18
U 1 1 54A16CBC
P 7800 5750
F 0 "R18" V 7880 5750 50  0000 C CNN
F 1 "680" V 7800 5750 50  0000 C CNN
F 2 "SM0603_Resistor" H 7800 5750 60  0001 C CNN
F 3 "" H 7800 5750 60  0001 C CNN
	1    7800 5750
	-1   0    0    1   
$EndComp
$Comp
L LED L4
U 1 1 54A16CC2
P 7800 6300
F 0 "L4" H 7800 6400 50  0000 C CNN
F 1 "STATUS (YELLOW)" H 7700 6200 50  0000 C CNN
F 2 "LED-0603" H 7800 6300 60  0001 C CNN
F 3 "" H 7800 6300 60  0001 C CNN
	1    7800 6300
	0    -1   1    0   
$EndComp
Text GLabel 7800 6600 3    60   Input ~ 0
~STATUS
Wire Wire Line
	7800 6600 7800 6500
Wire Wire Line
	7800 6000 7800 6100
Wire Wire Line
	7800 5400 7800 5500
Connection ~ 7500 5400
Text GLabel 5400 2000 2    60   Input ~ 0
~DATA_TX
Text GLabel 5400 2100 2    60   Input ~ 0
~DATA_RX
Text GLabel 1400 1100 0    60   Input ~ 0
~STATUS
NoConn ~ 1400 2900
NoConn ~ 1400 1000
NoConn ~ 5400 1000
NoConn ~ 5400 1100
NoConn ~ 5400 1200
NoConn ~ 5400 1300
NoConn ~ 5400 1400
NoConn ~ 5400 2200
NoConn ~ 5400 2400
NoConn ~ 5400 2500
Wire Wire Line
	3000 5600 3200 5600
Wire Wire Line
	3000 5700 3200 5700
NoConn ~ 3200 5600
NoConn ~ 3200 5700
NoConn ~ 1400 2000
Text GLabel 5400 3300 2    60   Input ~ 0
LED1_R
Text GLabel 5400 3400 2    60   Input ~ 0
LED1_G
Text GLabel 5400 3600 2    60   Input ~ 0
LED1_B
Text GLabel 5400 3800 2    60   Input ~ 0
LED2_R
Text GLabel 5400 3700 2    60   Input ~ 0
LED2_G
Text GLabel 5400 3500 2    60   Input ~ 0
LED2_B
Text GLabel 1400 1900 0    60   Input ~ 0
LED3_R
Text GLabel 1400 1800 0    60   Input ~ 0
LED3_G
Text GLabel 5400 1900 2    60   Input ~ 0
LED3_B
Text GLabel 5400 1800 2    60   Input ~ 0
LED4_R
Text GLabel 5400 1700 2    60   Input ~ 0
LED4_G
Text GLabel 5400 1600 2    60   Input ~ 0
LED4_B
NoConn ~ 5400 3900
NoConn ~ 5400 3200
$Comp
L CONN_4 P1
U 1 1 54A1A5C6
P 4750 5750
F 0 "P1" V 4700 5750 50  0000 C CNN
F 1 "LED1" V 4800 5750 50  0000 C CNN
F 2 "SIL-4" H 4750 5750 60  0001 C CNN
F 3 "" H 4750 5750 60  0000 C CNN
	1    4750 5750
	1    0    0    1   
$EndComp
Wire Wire Line
	4400 5900 4300 5900
Wire Wire Line
	4300 5900 4300 6000
$Comp
L GND #PWR027
U 1 1 54A1A70E
P 4300 6000
F 0 "#PWR027" H 4300 6000 30  0001 C CNN
F 1 "GND" H 4300 5930 30  0001 C CNN
F 2 "" H 4300 6000 60  0000 C CNN
F 3 "" H 4300 6000 60  0000 C CNN
	1    4300 6000
	1    0    0    -1  
$EndComp
Wire Wire Line
	3800 5600 4400 5600
Wire Wire Line
	3800 5700 4400 5700
Wire Wire Line
	3800 5800 4400 5800
Text GLabel 3800 5600 0    60   Input ~ 0
LED1_R
Text GLabel 3800 5700 0    60   Input ~ 0
LED1_G
Text GLabel 3800 5800 0    60   Input ~ 0
LED1_B
$Comp
L R R21
U 1 1 54A1AF7B
P 4300 5250
F 0 "R21" V 4380 5250 50  0000 C CNN
F 1 "47K" V 4300 5250 50  0000 C CNN
F 2 "SM0603_Resistor" H 4300 5250 60  0001 C CNN
F 3 "" H 4300 5250 60  0001 C CNN
	1    4300 5250
	-1   0    0    1   
$EndComp
Wire Wire Line
	4300 5500 4300 5600
Connection ~ 4300 5600
$Comp
L R R20
U 1 1 54A1B08C
P 4100 5250
F 0 "R20" V 4180 5250 50  0000 C CNN
F 1 "47K" V 4100 5250 50  0000 C CNN
F 2 "SM0603_Resistor" H 4100 5250 60  0001 C CNN
F 3 "" H 4100 5250 60  0001 C CNN
	1    4100 5250
	-1   0    0    1   
$EndComp
$Comp
L R R19
U 1 1 54A1B0CA
P 3900 5250
F 0 "R19" V 3980 5250 50  0000 C CNN
F 1 "47K" V 3900 5250 50  0000 C CNN
F 2 "SM0603_Resistor" H 3900 5250 60  0001 C CNN
F 3 "" H 3900 5250 60  0001 C CNN
	1    3900 5250
	-1   0    0    1   
$EndComp
Wire Wire Line
	4100 5500 4100 5700
Connection ~ 4100 5700
Wire Wire Line
	3900 5500 3900 5800
Connection ~ 3900 5800
Wire Wire Line
	3900 5000 3900 4900
Wire Wire Line
	3900 4900 4300 4900
Wire Wire Line
	4300 4900 4300 5000
Wire Wire Line
	4100 4800 4100 5000
Connection ~ 4100 4900
$Comp
L +5V #PWR028
U 1 1 54A1B64B
P 4100 4800
F 0 "#PWR028" H 4100 4890 20  0001 C CNN
F 1 "+5V" H 4100 4890 30  0000 C CNN
F 2 "" H 4100 4800 60  0000 C CNN
F 3 "" H 4100 4800 60  0000 C CNN
	1    4100 4800
	1    0    0    -1  
$EndComp
$Comp
L CONN_4 P3
U 1 1 54A1B901
P 4750 7150
F 0 "P3" V 4700 7150 50  0000 C CNN
F 1 "LED2" V 4800 7150 50  0000 C CNN
F 2 "SIL-4" H 4750 7150 60  0001 C CNN
F 3 "" H 4750 7150 60  0000 C CNN
	1    4750 7150
	1    0    0    1   
$EndComp
Wire Wire Line
	4400 7300 4300 7300
Wire Wire Line
	4300 7300 4300 7400
$Comp
L GND #PWR029
U 1 1 54A1B909
P 4300 7400
F 0 "#PWR029" H 4300 7400 30  0001 C CNN
F 1 "GND" H 4300 7330 30  0001 C CNN
F 2 "" H 4300 7400 60  0000 C CNN
F 3 "" H 4300 7400 60  0000 C CNN
	1    4300 7400
	1    0    0    -1  
$EndComp
Wire Wire Line
	3800 7000 4400 7000
Wire Wire Line
	3800 7100 4400 7100
Wire Wire Line
	3800 7200 4400 7200
Text GLabel 3800 7000 0    60   Input ~ 0
LED2_R
Text GLabel 3800 7100 0    60   Input ~ 0
LED2_G
Text GLabel 3800 7200 0    60   Input ~ 0
LED2_B
$Comp
L R R27
U 1 1 54A1B915
P 4300 6650
F 0 "R27" V 4380 6650 50  0000 C CNN
F 1 "47K" V 4300 6650 50  0000 C CNN
F 2 "SM0603_Resistor" H 4300 6650 60  0001 C CNN
F 3 "" H 4300 6650 60  0001 C CNN
	1    4300 6650
	-1   0    0    1   
$EndComp
Wire Wire Line
	4300 6900 4300 7000
Connection ~ 4300 7000
$Comp
L R R26
U 1 1 54A1B91D
P 4100 6650
F 0 "R26" V 4180 6650 50  0000 C CNN
F 1 "47K" V 4100 6650 50  0000 C CNN
F 2 "SM0603_Resistor" H 4100 6650 60  0001 C CNN
F 3 "" H 4100 6650 60  0001 C CNN
	1    4100 6650
	-1   0    0    1   
$EndComp
$Comp
L R R25
U 1 1 54A1B923
P 3900 6650
F 0 "R25" V 3980 6650 50  0000 C CNN
F 1 "47K" V 3900 6650 50  0000 C CNN
F 2 "SM0603_Resistor" H 3900 6650 60  0001 C CNN
F 3 "" H 3900 6650 60  0001 C CNN
	1    3900 6650
	-1   0    0    1   
$EndComp
Wire Wire Line
	4100 6900 4100 7100
Connection ~ 4100 7100
Wire Wire Line
	3900 6900 3900 7200
Connection ~ 3900 7200
Wire Wire Line
	3900 6400 3900 6300
Wire Wire Line
	3900 6300 4300 6300
Wire Wire Line
	4300 6300 4300 6400
Wire Wire Line
	4100 6200 4100 6400
Connection ~ 4100 6300
$Comp
L +5V #PWR030
U 1 1 54A1B932
P 4100 6200
F 0 "#PWR030" H 4100 6290 20  0001 C CNN
F 1 "+5V" H 4100 6290 30  0000 C CNN
F 2 "" H 4100 6200 60  0000 C CNN
F 3 "" H 4100 6200 60  0000 C CNN
	1    4100 6200
	1    0    0    -1  
$EndComp
$Comp
L CONN_4 P2
U 1 1 54A1BBE4
P 6450 5750
F 0 "P2" V 6400 5750 50  0000 C CNN
F 1 "LED3" V 6500 5750 50  0000 C CNN
F 2 "SIL-4" H 6450 5750 60  0001 C CNN
F 3 "" H 6450 5750 60  0000 C CNN
	1    6450 5750
	1    0    0    1   
$EndComp
Wire Wire Line
	6100 5900 6000 5900
Wire Wire Line
	6000 5900 6000 6000
$Comp
L GND #PWR031
U 1 1 54A1BBEC
P 6000 6000
F 0 "#PWR031" H 6000 6000 30  0001 C CNN
F 1 "GND" H 6000 5930 30  0001 C CNN
F 2 "" H 6000 6000 60  0000 C CNN
F 3 "" H 6000 6000 60  0000 C CNN
	1    6000 6000
	1    0    0    -1  
$EndComp
Wire Wire Line
	5500 5600 6100 5600
Wire Wire Line
	5500 5700 6100 5700
Wire Wire Line
	5500 5800 6100 5800
Text GLabel 5500 5600 0    60   Input ~ 0
LED3_R
Text GLabel 5500 5700 0    60   Input ~ 0
LED3_G
Text GLabel 5500 5800 0    60   Input ~ 0
LED3_B
$Comp
L R R24
U 1 1 54A1BBF8
P 6000 5250
F 0 "R24" V 6080 5250 50  0000 C CNN
F 1 "47K" V 6000 5250 50  0000 C CNN
F 2 "SM0603_Resistor" H 6000 5250 60  0001 C CNN
F 3 "" H 6000 5250 60  0001 C CNN
	1    6000 5250
	-1   0    0    1   
$EndComp
Wire Wire Line
	6000 5500 6000 5600
Connection ~ 6000 5600
$Comp
L R R23
U 1 1 54A1BC00
P 5800 5250
F 0 "R23" V 5880 5250 50  0000 C CNN
F 1 "47K" V 5800 5250 50  0000 C CNN
F 2 "SM0603_Resistor" H 5800 5250 60  0001 C CNN
F 3 "" H 5800 5250 60  0001 C CNN
	1    5800 5250
	-1   0    0    1   
$EndComp
$Comp
L R R22
U 1 1 54A1BC06
P 5600 5250
F 0 "R22" V 5680 5250 50  0000 C CNN
F 1 "47K" V 5600 5250 50  0000 C CNN
F 2 "SM0603_Resistor" H 5600 5250 60  0001 C CNN
F 3 "" H 5600 5250 60  0001 C CNN
	1    5600 5250
	-1   0    0    1   
$EndComp
Wire Wire Line
	5800 5500 5800 5700
Connection ~ 5800 5700
Wire Wire Line
	5600 5500 5600 5800
Connection ~ 5600 5800
Wire Wire Line
	5600 5000 5600 4900
Wire Wire Line
	5600 4900 6000 4900
Wire Wire Line
	6000 4900 6000 5000
Wire Wire Line
	5800 4800 5800 5000
Connection ~ 5800 4900
$Comp
L +5V #PWR032
U 1 1 54A1BC15
P 5800 4800
F 0 "#PWR032" H 5800 4890 20  0001 C CNN
F 1 "+5V" H 5800 4890 30  0000 C CNN
F 2 "" H 5800 4800 60  0000 C CNN
F 3 "" H 5800 4800 60  0000 C CNN
	1    5800 4800
	1    0    0    -1  
$EndComp
$Comp
L CONN_4 P4
U 1 1 54A1BC1B
P 6450 7150
F 0 "P4" V 6400 7150 50  0000 C CNN
F 1 "LED4" V 6500 7150 50  0000 C CNN
F 2 "SIL-4" H 6450 7150 60  0001 C CNN
F 3 "" H 6450 7150 60  0000 C CNN
	1    6450 7150
	1    0    0    1   
$EndComp
Wire Wire Line
	6100 7300 6000 7300
Wire Wire Line
	6000 7300 6000 7400
$Comp
L GND #PWR033
U 1 1 54A1BC23
P 6000 7400
F 0 "#PWR033" H 6000 7400 30  0001 C CNN
F 1 "GND" H 6000 7330 30  0001 C CNN
F 2 "" H 6000 7400 60  0000 C CNN
F 3 "" H 6000 7400 60  0000 C CNN
	1    6000 7400
	1    0    0    -1  
$EndComp
Wire Wire Line
	5500 7000 6100 7000
Wire Wire Line
	5500 7100 6100 7100
Wire Wire Line
	5500 7200 6100 7200
Text GLabel 5500 7000 0    60   Input ~ 0
LED4_R
Text GLabel 5500 7100 0    60   Input ~ 0
LED4_G
Text GLabel 5500 7200 0    60   Input ~ 0
LED4_B
$Comp
L R R30
U 1 1 54A1BC2F
P 6000 6650
F 0 "R30" V 6080 6650 50  0000 C CNN
F 1 "47K" V 6000 6650 50  0000 C CNN
F 2 "SM0603_Resistor" H 6000 6650 60  0001 C CNN
F 3 "" H 6000 6650 60  0001 C CNN
	1    6000 6650
	-1   0    0    1   
$EndComp
Wire Wire Line
	6000 6900 6000 7000
Connection ~ 6000 7000
$Comp
L R R29
U 1 1 54A1BC37
P 5800 6650
F 0 "R29" V 5880 6650 50  0000 C CNN
F 1 "47K" V 5800 6650 50  0000 C CNN
F 2 "SM0603_Resistor" H 5800 6650 60  0001 C CNN
F 3 "" H 5800 6650 60  0001 C CNN
	1    5800 6650
	-1   0    0    1   
$EndComp
$Comp
L R R28
U 1 1 54A1BC3D
P 5600 6650
F 0 "R28" V 5680 6650 50  0000 C CNN
F 1 "47K" V 5600 6650 50  0000 C CNN
F 2 "SM0603_Resistor" H 5600 6650 60  0001 C CNN
F 3 "" H 5600 6650 60  0001 C CNN
	1    5600 6650
	-1   0    0    1   
$EndComp
Wire Wire Line
	5800 6900 5800 7100
Connection ~ 5800 7100
Wire Wire Line
	5600 6900 5600 7200
Connection ~ 5600 7200
Wire Wire Line
	5600 6400 5600 6300
Wire Wire Line
	5600 6300 6000 6300
Wire Wire Line
	6000 6300 6000 6400
Wire Wire Line
	5800 6200 5800 6400
Connection ~ 5800 6300
$Comp
L +5V #PWR034
U 1 1 54A1BC4C
P 5800 6200
F 0 "#PWR034" H 5800 6290 20  0001 C CNN
F 1 "+5V" H 5800 6290 30  0000 C CNN
F 2 "" H 5800 6200 60  0000 C CNN
F 3 "" H 5800 6200 60  0000 C CNN
	1    5800 6200
	1    0    0    -1  
$EndComp
NoConn ~ 5400 4000
NoConn ~ 5400 4100
NoConn ~ 5400 4200
$EndSCHEMATC
